,County,State,Count
1,Anchorage,AK,4
2,Fairbanks North Star,AK,3
3,Ketchikan Gateway Borough,AK,1
4,Seward,AK,1
6,Baldwin,AL,1
7,Calhoun,AL,1
8,Dothan,AL,1
9,Elmore,AL,5
10,Jefferson,AL,26
11,Lee,AL,10
12,Limestone,AL,1
13,Madison,AL,1
14,Montgomery,AL,2
15,Shelby,AL,8
16,St. Clair,AL,1
17,Talladega,AL,1
18,Tuscaloosa,AL,4
19,Walker,AL,1
21,Jefferson,AR,3
23,Washington,AR,1
24,Coconino,AZ,1
25,Graham,AZ,1
26,Maricopa,AZ,20
27,Navajo,AZ,3
28,Pima,AZ,6
29,Pinal,AZ,10
32,Alameda,CA,33
33,Calaveras,CA,2
34,Contra Costa,CA,36
35,Fresno,CA,4
36,Imperial,CA,2
37,Kern,CA,1
38,Los Angeles,CA,189
39,Madera,CA,1
40,Marin,CA,13
41,Monterey,CA,2
42,Nevada,CA,1
43,Orange,CA,40
44,Placer,CA,14
45,Riverside,CA,16
46,Sacramento,CA,41
47,San Benito,CA,1
48,San Bernardino,CA,5
49,San Diego,CA,78
50,San Francisco,CA,57
51,San Joaquin,CA,10
52,San Luis Obispo,CA,7
53,San Mateo,CA,80
54,Santa Barbara,CA,2
55,Santa Clara,CA,134
56,Santa Cruz,CA,13
57,Shasta,CA,1
58,Solano,CA,6
59,Sonoma,CA,8
60,Stanislaus,CA,5
61,Tulare,CA,5
62,Ventura,CA,16
63,Yolo,CA,4
65,Adams,CO,10
66,Arapahoe,CO,17
67,Boulder,CO,10
68,Clear Creek,CO,2
69,Denver,CO,42
70,Douglas,CO,11
71,Eagle,CO,49
72,El Paso,CO,9
73,Garfield,CO,1
74,Grand,CO,1
75,Gunnison,CO,12
76,Jefferson,CO,22
77,Larimer,CO,4
78,Mesa,CO,1
79,Pitkin,CO,10
80,Pueblo,CO,1
81,Routt,CO,2
82,Summit,CO,5
83,Unassign,CO,3
84,Waiting on information,CO,1
85,Weld,CO,7
87,Fairfield,CT,70
88,Hartford,CT,11
89,Litchfield,CT,4
90,Middlesex,CT,1
91,New Haven,CT,9
92,Tolland,CT,1
93,Wilton,CT,1
95,Washington. D.C.,DC,40
97,Kent,DE,1
98,New Castle,DE,13
99,Sussex,DE,1
101,Alachua,FL,9
102,Brevard,FL,2
103,Broward,FL,90
104,Charlotte,FL,1
105,Citrus,FL,3
106,Clay,FL,5
107,Collier,FL,16
108,Dade,FL,32
109,Duval,FL,15
110,Escambia,FL,1
111,Hillsborough,FL,13
112,Lake,FL,2
113,Lee,FL,8
114,Leon,FL,3
115,Manatee,FL,8
116,Miami-Dade,FL,40
117,Nassau,FL,1
118,Non-Florida-Resident,FL,15
119,Okaloosa,FL,3
120,Orange,FL,14
121,Osceola,FL,7
122,Palm Beach,FL,29
123,Pasco,FL,4
124,Pinellas,FL,113
125,Polk,FL,1
126,Santa Rosa,FL,2
127,Sarasota,FL,5
128,Seminole,FL,8
129,St. Johns,FL,3
130,Sumter,FL,1
131,Unknown,FL,1
132,Volusia,FL,9
133,Walton County,FL,1
135,Augusta,GA,2
136,Barrow,GA,1
137,Bartow,GA,25
138,Bibb,GA,1
139,Camden,GA,1
140,Charlton,GA,1
141,Cherokee,GA,16
142,Clarke,GA,6
143,Clayton,GA,7
144,Cobb,GA,27
145,Coweta,GA,2
146,DeKalb,GA,22
147,Dougherty,GA,15
148,Early,GA,2
149,Fayette,GA,8
150,Floyd,GA,5
151,Forsyth,GA,3
152,Fulton,GA,60
153,Glynn,GA,2
154,Gordon,GA,3
155,Gwinnett,GA,12
156,Hall,GA,5
157,Henry,GA,2
158,Laurens,GA,2
159,Lee,GA,2
160,Lowndes,GA,8
161,Muscogee,GA,1
162,Newton,GA,3
163,Paulding,GA,3
164,Peach,GA,1
165,Polk,GA,1
166,Richmond,GA,2
167,Spalding,GA,1
168,Troup,GA,2
169,Unknown,GA,1
170,Whitfield,GA,1
174,Guam,GU,7
175,Hawaii,HI,1
176,Hawaii Island,HI,1
177,Honolulu,HI,8
178,Kauai County,HI,1
179,Maui,HI,2
180,Maui County,HI,1
181,Adair,IA,1
182,Allamakee,IA,2
183,Black Hawk,IA,1
184,Carroll,IA,1
185,Dallas,IA,5
186,Harrison,IA,1
187,IA,IA,5
188,Johnson,IA,16
189,Polk,IA,3
190,Pottawattamie,IA,1
191,Washington,IA,1
192,Winneshiek,IA,1
193,Ada,ID,2
194,Blaine,ID,3
195,Madison,ID,1
196,Teton,ID,1
197,Twin Falls,ID,1
198,Unknown,ID,3
199,Champaign,IL,1
200,Clinton,IL,3
201,Coles,IL,1
202,Cook,IL,144
203,Cumberland,IL,1
204,DuPage,IL,55
205,Jackson,IL,1
206,Kane,IL,4
207,Kendall,IL,2
208,Lake,IL,18
209,Madison,IL,1
210,McHenry,IL,4
211,Peoria,IL,3
212,Sangamon,IL,3
213,St. Clair,IL,3
214,Unknown,IL,4
215,Whiteside,IL,1
216,Will,IL,8
217,Williamson,IL,1
218,Winnebago,IL,1
220,Adams,IN,1
221,Bartholomew,IN,1
222,Boone,IN,1
223,Clark,IN,1
224,Fayette,IN,1
225,Floyd,IN,1
226,Franklin,IN,2
227,Hamilton,IN,2
228,Hancock,IN,1
229,Hendricks,IN,4
230,Howard,IN,5
231,Jennings,IN,1
232,Johnson,IN,4
233,Lake,IN,4
234,LaPorte,IN,1
235,Madison,IN,1
236,Marion,IN,19
237,Noble,IN,1
238,Owen,IN,1
239,St. Joseph,IN,3
240,Wayne,IN,1
241,Wells,IN,1
242,Cherokee,KS,1
243,Douglas,KS,1
244,Ford,KS,1
245,Franklin,KS,1
246,Jackson,KS,1
247,Johnson,KS,15
248,Leavenworth,KS,2
249,Linn,KS,1
250,Morris,KS,2
251,Sedgwick,KS,1
252,Wyandotte,KS,8
254,Bourbon,KY,2
255,Clark,KY,1
256,Daviess,KY,1
257,Fayette,KY,8
258,Harrison,KY,2
259,Henderson,KY,1
260,Jefferson,KY,8
261,Kenton,KY,1
262,KY,KY,2
263,Lyon,KY,1
264,Montgomery,KY,3
265,Nelson,KY,1
267,Ascension,LA,2
268,Bossier,LA,2
269,Caddo,LA,6
270,East Baton Rouge,LA,6
271,Iberia,LA,1
272,Jefferson,LA,61
273,Jefferson Parish,LA,1
274,Lafayette,LA,2
275,Lafourche,LA,3
276,Orleans,LA,199
277,Plaquemines,LA,1
278,St. Bernard,LA,4
279,St. Charles,LA,2
280,St. James,LA,1
281,St. John the Baptist,LA,2
282,St. Tammany,LA,11
283,Terrebonne,LA,5
285,Washington,LA,1
286,Washington Parish,LA,1
287,West Baton Rouge,LA,1
289,Barnstable,MA,2
290,Berkshire,MA,17
291,Bristol,MA,1
292,Essex,MA,10
293,Franklin,MA,1
294,Hampden,MA,1
295,Middlesex,MA,95
296,Norfolk,MA,44
297,Plymouth,MA,4
298,Suffolk,MA,51
299,Unknown,MA,12
300,Worcester,MA,9
301,Anne Arundel,MD,6
302,Baltimore,MD,9
303,Baltimore City,MD,8
304,Calvert,MD,1
305,Carroll,MD,3
306,Charles,MD,2
307,Frederick,MD,1
308,Harford,MD,2
309,Howard,MD,16
310,Montgomery,MD,27
311,Prince George,MD,1
312,Prince George  s,MD,6
313,Prince George s,MD,14
314,Prince George's,MD,2
315,Talbot,MD,1
318,Androscoggin,ME,3
319,Bangor,ME,1
320,Cumberland,ME,17
321,Hancock,ME,1
322,Kennebec,ME,3
323,Lincoln,ME,2
324,Oxford,ME,1
325,Penobscot,ME,1
326,York,ME,2
328,Bay,MI,1
329,Charlevoix,MI,1
330,Grand Traverse,MI,1
331,Ingham,MI,5
332,Jackson,MI,1
333,Kent,MI,5
334,Macomb,MI,29
335,Monroe,MI,1
336,Montcalm,MI,1
337,Oakland,MI,99
338,Otsego,MI,1
339,Ottawa,MI,1
340,St. Clair,MI,2
341,Washtenaw,MI,13
342,Wayne,MI,24
344,Anoka,MN,6
345,Benton,MN,1
346,Blue earth,MN,2
347,Carver,MN,3
348,Dakota,MN,8
349,Hennepin,MN,28
350,Martin,MN,3
351,Mower,MN,1
352,Nicollet,MN,2
353,Olmsted,MN,6
354,Ramsey,MN,10
355,Renville,MN,1
356,Rice,MN,1
357,Scott,MN,2
358,Stearns,MN,1
359,Wadena,MN,1
360,Waseca,MN,1
361,Washington,MN,3
362,Wright,MN,2
364,Boone,MO,1
365,Cass,MO,2
366,Christian,MO,2
367,Cole,MO,1
368,Greene,MO,6
369,Jackson,MO,3
370,Kansas City,MO,34
371,St. Charles,MO,1
372,St. Louis,MO,5
373,St. Louis City,MO,3
374,Bolivar,MS,2
375,Coahoma,MS,2
376,Copiah,MS,2
377,Desoto,MS,3
378,Forrest,MS,4
379,Hancock,MS,2
380,Harrison,MS,6
381,Hinds,MS,4
382,Holmes,MS,1
383,Jackson,MS,3
384,Jones,MS,1
385,Leflore,MS,4
386,Madison,MS,1
387,Monroe,MS,1
388,Pearl River,MS,7
389,Perry,MS,1
390,Smith,MS,1
391,Walthall,MS,1
392,Wilkinson,MS,1
393,Winston,MS,1
394,Yazoo,MS,1
395,Gallatin,MT,3
396,Lewis and Clark,MT,1
397,Missoula,MT,3
398,Silver Bow,MT,1
399,Unknown,MT,1
400,Yellowstone,MT,2
402,Brunswick,NC,1
403,Buncombe,NC,1
404,Chatham,NC,3
405,Craven,NC,2
406,Davidson,NC,1
407,Durham,NC,32
408,Forsyth,NC,3
409,Gaston,NC,1
410,Guilford,NC,1
411,Harnett,NC,3
412,Hoke,NC,1
413,Iredell,NC,2
414,Johnston,NC,1
415,Lincoln,NC,1
416,Mecklenburg,NC,30
417,Moore,NC,1
418,New Hanover,NC,1
419,Orange,NC,1
420,Pitt,NC,1
421,Sampson,NC,1
423,Union,NC,1
424,Wake,NC,20
425,Watauga,NC,2
426,Wayne,NC,1
427,Wilson,NC,1
428,Burleigh,ND,9
429,Cass,ND,1
430,Morton,ND,3
431,Ward,ND,2
432,Adams,NE,1
433,Cass,NE,1
434,Douglas,NE,22
435,Knox,NE,2
436,Lincoln,NE,1
437,Sarpy,NE,1
438,Berknap,NH,2
439,Carroll,NH,4
440,Grafton,NH,6
441,Hillsborough,NH,7
442,Merrimack,NH,1
443,Rockingham,NH,17
445,Atlantic,NJ,3
446,Bergen,NJ,93
447,Burlington,NJ,11
448,Camden,NJ,8
449,Essex,NJ,46
450,Hudson,NJ,32
451,Hunterdon,NJ,5
452,Mercer,NJ,15
453,Middlesex,NJ,34
454,Monmouth,NJ,33
455,Morris,NJ,19
456,Ocean,NJ,8
457,Passaic,NJ,18
458,Somerset,NJ,16
460,Union,NJ,25
461,Warren,NJ,1
462,Bernalillo,NM,12
463,Sandoval,NM,3
464,Santa Fe,NM,5
465,Socorro,NM,2
466,Taos,NM,1
467,Carson City,NV,1
468,Clark,NV,74
469,Washoe,NV,16
471,Albany,NY,141
472,Allegany,NY,2
473,Broome,NY,1
474,Chenango,NY,1
475,Clinton,NY,1
476,Delaware,NY,1
477,Dutchess,NY,31
478,Erie,NY,26
479,Essex,NY,1
480,Genesee,NY,1
481,Greene,NY,2
482,Hamilton,NY,1
483,Herkimer,NY,1
484,Monroe,NY,30
485,Montgomery,NY,2
486,Nassau,NY,379
487,New York,NY,2374
488,Niagara,NY,3
489,Oneida,NY,2
490,Onondaga,NY,9
491,Ontario,NY,1
492,Orange,NY,52
493,Putnam,NY,5
494,Rensselaer,NY,4
495,Rockland,NY,51
496,Saratoga,NY,14
497,Schenectady,NY,14
498,Schoharie,NY,1
499,Suffolk,NY,172
500,Sullivan,NY,1
501,Tompkins,NY,6
502,Ulster,NY,9
504,Warren,NY,1
505,Washington,NY,1
506,Westchester,NY,783
507,Wyoming,NY,2
508,Ashland,OH,1
509,Belmont,OH,2
510,Bulter,OH,1
511,Butler,OH,7
512,Clark,OH,1
513,Coshocton,OH,2
514,Cuyahoga,OH,48
515,Darke,OH,1
516,Delaware,OH,2
517,Franklin,OH,10
518,Geauga,OH,1
519,Hamilton,OH,1
520,Huron,OH,1
521,Lake,OH,1
522,Lake County,OH,1
523,Lorain,OH,4
524,Lucas,OH,1
525,Mahoning,OH,5
526,Medina,OH,5
527,Miami,OH,1
528,Montgomery,OH,1
529,Richland,OH,1
530,Stark,OH,4
531,Summit,OH,5
532,Trumbull,OH,1
533,Tuscarawas,OH,1
534,Canadian,OK,2
535,Cleveland,OK,9
536,Custer,OK,1
537,Grady,OK,1
538,Jackson,OK,1
539,Kay,OK,2
540,Logan,OK,1
541,McClain,OK,1
542,Oklahoma,OK,10
543,Pawnee,OK,1
544,Payne,OK,1
545,Tulsa,OK,5
547,Washington,OK,1
548,​Benton,OR,3
549,Clackamas,OR,6
550,Deschutes,OR,6
551,Douglas,OR,1
552,Jackson,OR,2
553,Klamath,OR,1
554,Lane,OR,2
555,Linn,OR,16
556,Marion,OR,13
557,Multnomah,OR,7
558,Polk,OR,1
559,Umatilla,OR,2
560,Washington,OR,23
561,Yamhill,OR,2
562,Allegheny,PA,16
563,Beaver,PA,2
564,Berks,PA,1
565,Bucks,PA,11
566,Chester,PA,10
567,Cumberland,PA,9
568,Delaware,PA,13
569,Erie,PA,1
570,Lackawanna,PA,2
571,Lancaster,PA,2
572,Lebanon,PA,1
573,Monroe,PA,12
574,Montgomery,PA,43
575,Northampton,PA,5
576,Philadelphia,PA,30
577,Pike,PA,3
578,Unassign,PA,1
579,Washington,PA,3
580,Wayne,PA,1
581,Westmoreland,PA,2
582,York,PA,2
583,Puerto Rico,PR,5
585,Providence,RI,25
586,RI,RI,2
588,Anderson,SC,2
589,Beaufort,SC,3
590,Calhoun,SC,1
591,Camden,SC,4
592,Charleston,SC,4
593,Greenville,SC,3
594,Horry,SC,5
595,Kershaw,SC,18
596,Lancaster,SC,2
597,Lee,SC,1
598,Lexington,SC,4
599,Richland,SC,4
600,Spartanburg,SC,1
602,York,SC,1
603,Beadle,SD,1
604,Bon Homme,SD,1
605,Charles Mix,SD,1
606,Davidson,SD,1
607,McCook,SD,1
608,Minnehaha,SD,5
609,Pennington,SD,1
610,Campbell,TN,1
611,Cheatham,TN,1
612,Davidson,TN,58
613,Hamilton,TN,3
614,Jefferson,TN,1
615,Knox,TN,2
616,Robertson,TN,1
617,Rutherford,TN,1
618,Sevier,TN,1
619,Shelby,TN,10
620,Sullivan,TN,1
621,Sumner,TN,2
622,Unknown,TN,1
623,Williamson,TN,23
624,Bell,TX,5
625,Bexar,TX,24
626,Bowie,TX,1
627,Brazoria,TX,2
628,Brazos,TX,4
629,Brown,TX,1
630,Collin,TX,12
631,Comal,TX,1
632,Dallas,TX,59
633,Denton,TX,5
634,DeWitt,TX,1
635,El Paso,TX,3
636,Ellis,TX,1
637,Fannin,TX,1
638,Fort Bend,TX,12
639,Galveston,TX,3
640,Gregg,TX,1
641,Grimes,TX,1
642,Harris,TX,30
643,Hays,TX,4
644,Jefferson,TX,1
645,Johnson,TX,1
646,Lubbock,TX,3
647,Matagorda,TX,3
648,McLennan,TX,5
649,Montgomery,TX,8
650,Potter,TX,2
651,Rusk,TX,1
652,Smith,TX,1
653,Tarrant,TX,9
654,Travis,TX,22
655,Van Zandt,TX,1
656,Webb,TX,1
657,Wichita,TX,1
658,Williamson,TX,8
662,Bear River,UT,1
663,Cache,UT,2
664,Davis,UT,6
665,Non-Utah resident,UT,7
666,Salt Lake,UT,21
667,Summit,UT,17
668,Tooele,UT,1
669,Utah,UT,1
670,Wasatch,UT,2
671,Weber,UT,1
672,Weber-Morgan,UT,3
674,Alexandria City,VA,4
675,Arlington,VA,17
676,Charles City,VA,1
677,Charlottesville City,VA,1
678,Chesterfield,VA,6
679,Fairfax,VA,16
680,Goochland,VA,1
681,Hanover,VA,1
682,Harrisonburg,VA,1
683,Henrico,VA,4
684,James City,VA,12
685,Loudoun,VA,3
686,Lynchburg,VA,1
687,Norfolk,VA,5
688,Prince William,VA,10
689,Richmond City,VA,3
690,Spotsylvania,VA,1
691,Stafford,VA,2
692,Westmoreland,VA,1
693,Williamsburg,VA,1
694,York,VA,1
695,Addison,VT,1
696,Bennington,VT,3
697,Chittenden,VT,4
698,Orange,VT,1
700,Windsor,VT,3
701,Benton-Franklin,WA,1
702,Chelan,WA,2
703,Clark,WA,6
704,Columbia,WA,1
705,Cowlitz,WA,1
706,Franklin,WA,1
707,Grant,WA,8
708,Grays Harbor,WA,1
709,Island,WA,13
710,Jefferson,WA,3
711,King,WA,457
712,Kitsap,WA,9
713,Kittitas,WA,4
714,Klickitat,WA,1
715,Lewis,WA,1
716,Lincoln,WA,1
717,Mason,WA,1
718,Pierce,WA,56
719,Skagit,WA,13
720,Snohomish,WA,258
721,Spokane,WA,5
722,Thurston,WA,6
724,Whatcom,WA,7
725,Yakima,WA,5
727,Bayfield,WI,1
728,Brown,WI,2
729,Dane,WI,21
730,Eau Claire,WI,1
731,Fond du Lac,WI,13
732,Kenosha,WI,4
733,La Crosse,WI,3
734,Milwaukee,WI,47
735,Outagamie,WI,1
736,Ozaukee,WI,1
737,Pierce,WI,1
738,Racine,WI,1
739,Sheboygan,WI,4
740,Unknow,WI,38
741,Walworth,WI,1
742,Washington,WI,2
743,Waukesha,WI,5
744,Winnebago,WI,4
745,Wood,WI,1
746,Jefferson,WV,1
747,Mercer,WV,1
748,Fremont,WY,8
749,Laramie,WY,4
750,Park,WY,1
751,Sheridan,WY,2
752,Sheridan County,WY,1